<svg width="68" height="68" viewBox="0 0 68 68" fill="none" xmlns="http://www.w3.org/2000/svg">
    <g clip-path="url(#clip0)">
        <path d="M57.9269 57.9262C71.2672 44.586 71.3694 23.0595 58.1553 9.84536C44.9412 -3.36873 23.4147 -3.26646 10.0745 10.0738C-3.26575 23.414 -3.36801 44.9405 9.84608 58.1546C23.0602 71.3687 44.5867 71.2664 57.9269 57.9262Z"
              fill="#FFCDF7"/>
        <path d="M56.2496 54.4C56.156 54.4001 56.0642 54.3742 55.9844 54.3252C55.9334 54.2946 50.9966 51.306 39.7664 49.2966C39.649 49.2758 39.5428 49.2143 39.4663 49.1229C39.3898 49.0315 39.348 48.916 39.3482 48.7968V44.8868C39.3482 44.7516 39.4019 44.6218 39.4976 44.5262C39.5932 44.4306 39.7229 44.3768 39.8582 44.3768C39.9935 44.3768 40.1232 44.4306 40.2188 44.5262C40.3145 44.6218 40.3682 44.7516 40.3682 44.8868V48.3684C51.5168 50.4084 56.3176 53.3324 56.5216 53.4684C56.5786 53.5038 56.6281 53.5502 56.6672 53.6047C56.7062 53.6593 56.7342 53.7211 56.7493 53.7865C56.7645 53.8518 56.7666 53.9196 56.7555 53.9858C56.7444 54.052 56.7204 54.1153 56.6848 54.1722C56.6375 54.244 56.5728 54.3025 56.4967 54.3424C56.4205 54.3822 56.3355 54.4021 56.2496 54.4Z"
              fill="black"/>
        <path d="M34.272 45.3254C33.558 45.3084 17.1224 44.8936 13.2464 41.6704C13.1713 41.6061 13.116 41.5218 13.0871 41.4272C13.0582 41.3327 13.0569 41.2319 13.0832 41.1366C13.1105 41.0409 13.1653 40.9554 13.2409 40.8907C13.3165 40.826 13.4095 40.785 13.5082 40.7728C13.702 40.7456 18.2852 40.0146 18.2852 32.6128C18.2852 31.6404 18.241 30.5728 18.1968 29.4236C17.8942 21.6036 17.476 10.9208 29.3794 10.2442C30.9491 10.1639 32.5119 10.5018 33.9082 11.2234C35.2988 10.353 37.3558 10.0776 38.7702 10.2612C50.4526 11.8048 50.0684 22.0422 49.7896 29.5188C49.7488 30.6204 49.7114 31.6574 49.7114 32.6128C49.7114 40.0214 54.2946 40.7524 54.4884 40.7728C54.5866 40.7859 54.6788 40.8274 54.7538 40.8921C54.8288 40.9568 54.8834 41.042 54.9108 41.1372C54.9382 41.2324 54.9373 41.3335 54.9082 41.4282C54.879 41.5229 54.823 41.607 54.7468 41.6704C53.3868 42.8026 50.2928 43.7104 45.2948 44.4448C45.0296 44.4822 44.5774 44.5502 43.3194 42.33C43.1766 44.8018 42.6156 44.8562 42.3198 44.8834C38.0494 45.288 34.3128 45.3254 34.272 45.3254ZM14.756 41.4324C16.643 42.4014 20.2708 43.1834 25.3844 43.7206C30.0118 44.2034 34.2244 44.3054 34.2788 44.3054C34.3332 44.3054 37.8998 44.2714 42.0614 43.8838C42.2552 43.4078 42.3572 41.7248 42.3266 40.3172C42.3237 40.2007 42.3608 40.0867 42.4318 39.9942C42.5027 39.9017 42.6032 39.8363 42.7164 39.8089C42.8297 39.7815 42.949 39.7937 43.0544 39.8435C43.1597 39.8933 43.2449 39.9777 43.2956 40.0826C43.9756 41.4698 44.9038 43.0712 45.2812 43.4146C49.062 42.8536 51.7412 42.1872 53.2338 41.429C51.5814 40.7082 48.6914 38.5934 48.6914 32.606C48.6914 31.6336 48.7288 30.566 48.773 29.4746C49.0518 21.9946 49.3986 12.6888 38.6342 11.2676C37.1348 11.067 35.2342 11.4818 34.2346 12.2298C34.1515 12.2913 34.0516 12.3258 33.9483 12.3289C33.845 12.3319 33.7432 12.3033 33.6566 12.2468C32.3736 11.5204 30.9093 11.177 29.4372 11.2574C18.5368 11.8762 18.9142 21.5798 19.2168 29.376C19.261 30.5286 19.3052 31.6166 19.3052 32.606C19.312 38.6002 16.4118 40.715 14.7594 41.4324H14.756Z"
              fill="black"/>
        <path d="M11.7504 54.4C11.6637 54.4004 11.5784 54.3783 11.5028 54.336C11.4271 54.2938 11.3637 54.2327 11.3186 54.1586C11.283 54.1017 11.259 54.0384 11.2479 53.9722C11.2368 53.906 11.2389 53.8382 11.2541 53.7728C11.2693 53.7075 11.2972 53.6457 11.3362 53.5911C11.3753 53.5366 11.4248 53.4903 11.4818 53.4548C11.6824 53.3324 16.4866 50.4152 27.6352 48.3548V44.8868C27.6352 44.7516 27.6889 44.6218 27.7846 44.5262C27.8802 44.4306 28.0099 44.3768 28.1452 44.3768C28.2805 44.3768 28.4102 44.4306 28.5058 44.5262C28.6015 44.6218 28.6552 44.7516 28.6552 44.8868V48.7968C28.6553 48.9165 28.613 49.0324 28.5358 49.1239C28.4587 49.2153 28.3516 49.2765 28.2336 49.2966C17.0136 51.306 12.0666 54.2946 12.019 54.3252C11.938 54.3743 11.8451 54.4002 11.7504 54.4Z"
              fill="black"/>
        <path d="M25.5306 34.6119C25.4302 34.6119 25.3321 34.5821 25.2485 34.5265C25.1649 34.4709 25.0996 34.3918 25.0607 34.2993C25.0219 34.2067 25.0112 34.1047 25.0301 34.0061C25.049 33.9075 25.0965 33.8166 25.1668 33.7449L26.6084 32.2829C26.7035 32.1865 26.8331 32.1317 26.9686 32.1308C27.1041 32.1298 27.2344 32.1827 27.3309 32.2778C27.4274 32.373 27.4821 32.5025 27.4831 32.638C27.484 32.7735 27.4311 32.9039 27.336 33.0003L25.891 34.4623C25.7952 34.5577 25.6657 34.6114 25.5306 34.6119Z"
              fill="black"/>
        <path d="M29.512 30.5694C29.4119 30.5677 29.3145 30.5368 29.2317 30.4805C29.1489 30.4242 29.0844 30.345 29.0461 30.2525C29.0079 30.16 28.9974 30.0583 29.0162 29.96C29.0349 29.8616 29.082 29.7709 29.1516 29.699L30.5932 28.2404C30.6397 28.1901 30.6958 28.1497 30.7582 28.1215C30.8206 28.0934 30.8881 28.0781 30.9565 28.0765C31.025 28.075 31.0931 28.0873 31.1567 28.1127C31.2203 28.138 31.2781 28.1759 31.3268 28.2241C31.3754 28.2723 31.4139 28.3298 31.4398 28.3932C31.4658 28.4565 31.4787 28.5245 31.4778 28.5929C31.4769 28.6614 31.4623 28.729 31.4347 28.7917C31.4072 28.8544 31.3673 28.9108 31.3174 28.9578L29.8758 30.4164C29.8286 30.4651 29.7721 30.5037 29.7095 30.53C29.647 30.5563 29.5798 30.5697 29.512 30.5694Z"
              fill="black"/>
        <path d="M30.9706 34.612C30.9035 34.6129 30.8369 34.6001 30.775 34.5744C30.713 34.5486 30.6569 34.5105 30.6102 34.4624L29.172 33.0174C29.0771 32.9208 29.0239 32.7907 29.0239 32.6553C29.0239 32.5198 29.0771 32.3898 29.172 32.2932C29.2676 32.1977 29.3973 32.144 29.5324 32.144C29.6676 32.144 29.7972 32.1977 29.8928 32.2932L31.3378 33.7382C31.409 33.8095 31.4575 33.9003 31.4772 33.9992C31.4968 34.0981 31.4867 34.2006 31.4482 34.2937C31.4096 34.3868 31.3443 34.4665 31.2605 34.5225C31.1767 34.5785 31.0782 34.6085 30.9774 34.6086L30.9706 34.612Z"
              fill="black"/>
        <path d="M26.9722 30.6035C26.9052 30.604 26.8387 30.591 26.7768 30.5653C26.7149 30.5396 26.6588 30.5017 26.6118 30.4539L25.1702 29.0088C25.1201 28.9622 25.0799 28.9058 25.052 28.8433C25.0242 28.7807 25.0092 28.7132 25.008 28.6447C25.0068 28.5763 25.0194 28.5082 25.045 28.4447C25.0707 28.3812 25.1088 28.3235 25.1573 28.2751C25.2057 28.2267 25.2634 28.1885 25.3269 28.1629C25.3904 28.1372 25.4584 28.1246 25.5269 28.1258C25.5954 28.127 25.6629 28.142 25.7255 28.1699C25.788 28.1978 25.8443 28.2379 25.891 28.2881L27.3326 29.7331C27.4038 29.8044 27.4523 29.8952 27.472 29.9941C27.4916 30.0929 27.4815 30.1954 27.443 30.2886C27.4044 30.3817 27.3391 30.4613 27.2553 30.5174C27.1715 30.5734 27.073 30.6034 26.9722 30.6035Z"
              fill="black"/>
    </g>
    <defs>
        <clipPath id="clip0">
            <rect width="68" height="68" fill="white"/>
        </clipPath>
    </defs>
</svg>
