<svg width="126" height="126" viewBox="0 0 126 126" fill="none" xmlns="http://www.w3.org/2000/svg">
<path d="M125.404 63C125.404 28.2061 97.4649 1.10245e-05 62.9999 1.2531e-05C28.535 1.40375e-05 0.595699 28.2061 0.5957 63C0.595702 97.794 28.535 126 62.9999 126C97.4649 126 125.404 97.794 125.404 63Z" fill="#FFCDF7" fill-opacity="0.53"/>
<path d="M108.162 55.8666C107.983 55.7306 107.761 55.6618 107.535 55.6723L102.751 56.0359L102.588 55.0891C102.183 52.4953 101.305 49.998 99.9982 47.7212L99.5153 46.8872L103.478 44.1659C103.613 44.0727 103.718 43.9416 103.779 43.7893C103.84 43.6369 103.855 43.47 103.821 43.3093C103.788 43.1487 103.708 43.0014 103.591 42.8861C103.474 42.7708 103.326 42.6924 103.165 42.6609C103.057 42.639 102.946 42.6393 102.838 42.662C102.73 42.6846 102.628 42.7291 102.538 42.7926L98.5623 45.514L97.9352 44.7615C96.2807 42.7243 94.2709 41.0035 92.0033 39.6824L91.1693 39.1933L93.2574 34.8541C93.3383 34.653 93.3383 34.4283 93.2574 34.2271C93.1815 34.0175 93.0261 33.8462 92.8247 33.7505C92.6267 33.6631 92.4034 33.6519 92.1977 33.7191C92.0951 33.7558 92.0007 33.8123 91.92 33.8855C91.8393 33.9586 91.7738 34.047 91.7274 34.1456L89.6518 38.4784L88.7489 38.1336C86.2969 37.1922 83.6939 36.7056 81.0675 36.6976H80.1018L79.7381 31.9132C79.7208 31.7019 79.6249 31.5048 79.4694 31.3609C79.3138 31.2169 79.1098 31.1365 78.8978 31.1357H78.8352C78.6147 31.1542 78.4102 31.2576 78.2646 31.4241C78.1911 31.5098 78.1359 31.6097 78.1025 31.7176C78.0691 31.8254 78.0581 31.9389 78.0702 32.0512L78.4401 36.8356L77.4933 36.9923C74.8979 37.4025 72.399 38.2822 70.1191 39.5883L69.2852 40.0712L66.57 36.102C66.4388 35.9205 66.244 35.7951 66.0245 35.7508C65.9165 35.7289 65.8052 35.7293 65.6974 35.7519C65.5895 35.7746 65.4875 35.8189 65.3974 35.8824C65.2156 36.0081 65.0907 36.2004 65.0496 36.4175C65.0085 36.6346 65.0547 36.8592 65.178 37.0425L67.8994 41.018L67.1469 41.6451C65.1114 43.3014 63.3909 45.3108 62.0678 47.577L61.5786 48.411L57.2395 46.3292C57.0408 46.2446 56.8185 46.2335 56.6124 46.2979C56.4583 46.3546 56.3243 46.4555 56.2274 46.5881C56.1304 46.7207 56.0748 46.8789 56.0674 47.043C56.06 47.2071 56.1013 47.3697 56.186 47.5105C56.2707 47.6512 56.395 47.7638 56.5434 47.8341L60.8701 49.9096L60.5315 50.8126C59.5881 53.2642 59.0994 55.8672 59.0893 58.494V59.4534L54.3048 59.8233C54.1395 59.8348 53.9812 59.8952 53.8504 59.997C53.7195 60.0987 53.6219 60.2372 53.5701 60.3947C53.5183 60.5521 53.5146 60.7215 53.5595 60.881C53.6043 61.0406 53.6957 61.1832 53.822 61.2906C54.0003 61.4304 54.2228 61.5016 54.4491 61.4913L59.2335 61.1213L59.3965 62.0682C59.8026 64.6636 60.6803 67.1629 61.9862 69.4423L62.4628 70.2826L58.5061 72.9915C58.3212 73.1178 58.193 73.3113 58.1487 73.5307C58.1282 73.6388 58.1293 73.7498 58.1519 73.8574C58.1745 73.965 58.2182 74.0671 58.2804 74.1578C58.4109 74.3332 58.6027 74.4531 58.8176 74.4938C59.0325 74.5345 59.2548 74.4928 59.4404 74.3772L63.4347 71.5806L64.0618 72.3267C65.7153 74.3643 67.7226 76.087 69.9874 77.4122L70.8214 77.9013L68.7396 82.2342C68.6485 82.4313 68.6373 82.656 68.7082 82.8613C68.7439 82.9651 68.8001 83.0607 68.8736 83.1423C68.947 83.2238 69.0362 83.2897 69.1358 83.3359C69.2353 83.3822 69.3432 83.4079 69.4529 83.4115C69.5626 83.415 69.6719 83.3964 69.7742 83.3567C69.9795 83.2836 70.1497 83.1358 70.2508 82.9428L72.3263 78.6098L73.2293 78.9547C75.6764 79.8979 78.2756 80.3846 80.8981 80.3907H81.8638L82.2338 85.1813C82.2463 85.3462 82.3076 85.5037 82.4098 85.6336C82.512 85.7636 82.6505 85.8603 82.8077 85.9113C82.965 85.9624 83.1339 85.9656 83.293 85.9204C83.452 85.8753 83.5941 85.7839 83.7011 85.6579C83.7747 85.5721 83.8304 85.4724 83.8649 85.3647C83.8993 85.257 83.9119 85.1435 83.9018 85.0308L83.5318 80.2402L84.4849 80.0835C87.0764 79.6773 89.5715 78.7996 91.8465 77.4937L92.6868 77.0109L95.4019 80.9738C95.5336 81.1497 95.7264 81.2699 95.9424 81.3105C96.1583 81.3512 96.3816 81.3093 96.5682 81.1933C96.749 81.0667 96.8727 80.8741 96.9126 80.657C96.9525 80.4399 96.9053 80.2159 96.7814 80.0332L94.06 76.064L94.8062 75.437C96.8453 73.7826 98.5682 71.7729 99.8916 69.505L100.381 68.6711L104.714 70.7529C104.916 70.8353 105.141 70.8406 105.347 70.7678C105.553 70.6949 105.724 70.5491 105.83 70.3579C105.879 70.2616 105.908 70.1562 105.914 70.0482C105.921 69.9403 105.905 69.8323 105.867 69.7308C105.832 69.626 105.775 69.5296 105.701 69.4476C105.626 69.3656 105.536 69.2998 105.435 69.2542L101.102 67.1724L101.447 66.2695C102.392 63.8207 102.878 61.2191 102.883 58.5943V57.6287L107.673 57.2587C107.893 57.2395 108.097 57.1349 108.242 56.9674C108.386 56.7998 108.459 56.5826 108.445 56.362C108.41 56.1694 108.311 55.9945 108.162 55.8666ZM96.3487 71.6872C94.6272 73.7095 92.5214 75.37 90.1534 76.5723C87.7853 77.7746 85.2021 78.4949 82.5536 78.6913C82.0206 78.729 81.4939 78.754 80.9671 78.754C76.354 78.7537 71.8795 77.1766 68.2857 74.2842C64.6919 71.3919 62.1946 67.358 61.208 62.8516C60.2214 58.3452 60.8047 53.6368 62.8613 49.5074C64.9178 45.378 68.324 42.0756 72.515 40.1477C76.706 38.2199 81.4301 37.7824 85.9039 38.9079C90.3776 40.0333 94.3323 42.6541 97.1122 46.3357C99.8921 50.0172 101.33 54.5382 101.188 59.1492C101.046 63.7602 99.3315 68.1841 96.3299 71.6872H96.3487Z" fill="#1D1D1B"/>
<path d="M91.125 48.0409C91.1999 47.9559 91.2564 47.8563 91.2909 47.7483C91.3255 47.6404 91.3373 47.5265 91.3257 47.4138C91.3072 47.1934 91.2038 46.9889 91.0373 46.8433C90.8895 46.7145 90.7003 46.6432 90.5043 46.6426H90.4353C90.3247 46.6496 90.2167 46.6788 90.1176 46.7283C90.0185 46.7779 89.9304 46.8468 89.8584 46.931L87.9773 49.1257C87.9014 49.2101 87.8443 49.3096 87.8097 49.4177C87.7751 49.5258 87.7638 49.64 87.7766 49.7527C87.7852 49.8611 87.8152 49.9668 87.8647 50.0637C87.9142 50.1605 87.9823 50.2466 88.0651 50.3171C88.2354 50.4561 88.4527 50.5246 88.672 50.5082C88.8913 50.4919 89.096 50.392 89.2439 50.2293L91.125 48.0409Z" fill="#1D1D1B"/>
<path d="M73.3602 66.5639C73.1586 66.5776 72.969 66.6646 72.8272 66.8085L72.7958 66.8523L70.9147 69.0407C70.7711 69.2092 70.6998 69.4275 70.7162 69.6483C70.7326 69.869 70.8355 70.0743 71.0025 70.2196C71.1752 70.3568 71.3936 70.4234 71.6136 70.406C71.8335 70.3885 72.0387 70.2884 72.1876 70.1256L74.0688 67.9309C74.1453 67.847 74.2029 67.7475 74.2375 67.6393C74.2721 67.5311 74.283 67.4167 74.2694 67.3039C74.2526 67.0879 74.1512 66.8873 73.9872 66.7458C73.9033 66.6699 73.8033 66.6141 73.6947 66.5826C73.586 66.5511 73.4717 66.5447 73.3602 66.5639Z" fill="#1D1D1B"/>
<path d="M95.5335 56.6003H95.4708L92.5927 56.8197C92.3707 56.8373 92.1648 56.9424 92.0202 57.1117C91.8756 57.281 91.8041 57.5007 91.8214 57.7227C91.83 57.8311 91.86 57.9367 91.9095 58.0336C91.959 58.1304 92.027 58.2166 92.1098 58.2871C92.2846 58.4334 92.5097 58.5054 92.7369 58.4877L95.6151 58.262C95.7242 58.2553 95.8308 58.2268 95.9288 58.1784C96.0268 58.1299 96.1141 58.0625 96.1857 57.9798C96.2587 57.8936 96.314 57.7939 96.3485 57.6863C96.3829 57.5787 96.3957 57.4654 96.3863 57.3528C96.3785 57.2433 96.349 57.1364 96.2994 57.0385C96.2499 56.9405 96.1814 56.8534 96.0979 56.7821C95.9381 56.655 95.7375 56.5903 95.5335 56.6003Z" fill="#1D1D1B"/>
<path d="M69.3915 58.613H69.3225L66.438 58.8388C66.33 58.8463 66.2245 58.8751 66.1277 58.9235C66.0308 58.9719 65.9445 59.039 65.8737 59.1209C65.7274 59.2957 65.6554 59.5208 65.673 59.748C65.69 59.9706 65.7935 60.1778 65.9615 60.3249C66.1384 60.4666 66.3625 60.536 66.5885 60.5192L69.4667 60.2998C69.6875 60.2822 69.8924 60.1781 70.0368 60.0101C70.1813 59.8422 70.2535 59.624 70.238 59.4031C70.2222 59.194 70.1283 58.9986 69.9749 58.8556C69.8215 58.7127 69.6199 58.6328 69.4103 58.6318L69.3915 58.613Z" fill="#1D1D1B"/>
<path d="M81.9137 69.3481H81.851C81.6302 69.3657 81.4253 69.4699 81.2808 69.6378C81.1364 69.8057 81.0641 70.0238 81.0797 70.2448L81.3054 73.1229C81.3133 73.2324 81.3428 73.3393 81.3924 73.4372C81.4419 73.5352 81.5104 73.6223 81.5939 73.6936C81.7687 73.8399 81.9937 73.9119 82.221 73.8942C82.4419 73.8728 82.6462 73.7673 82.7916 73.5995C82.8657 73.5142 82.9212 73.4144 82.9547 73.3064C82.9881 73.1985 82.9988 73.0847 82.9859 72.9725L82.7665 70.088C82.7416 69.8808 82.6405 69.6903 82.4829 69.5535C82.3253 69.4167 82.1223 69.3435 81.9137 69.3481Z" fill="#1D1D1B"/>
<path d="M80.4463 43.4006C80.2952 43.2733 80.1046 43.2023 79.907 43.1999H79.838C79.6173 43.2176 79.4124 43.3216 79.2679 43.4896C79.1235 43.6575 79.0512 43.8757 79.0668 44.0966L79.2863 46.9748C79.3167 47.1903 79.4244 47.3873 79.5894 47.5292C79.7544 47.6711 79.9653 47.7482 80.183 47.7461C80.4056 47.7291 80.6127 47.6256 80.7598 47.4576C80.8327 47.3715 80.8874 47.2716 80.9208 47.1639C80.9542 47.0561 80.9656 46.9428 80.9542 46.8306L80.7348 43.9462C80.7113 43.7343 80.6082 43.5393 80.4463 43.4006Z" fill="#1D1D1B"/>
<path d="M71.586 51.59C71.7576 51.7261 71.9742 51.7927 72.1926 51.7764C72.4111 51.7601 72.6154 51.6622 72.7649 51.5022C72.8395 51.4169 72.8957 51.3173 72.9302 51.2094C72.9647 51.1016 72.9768 50.9878 72.9656 50.8751C72.959 50.7662 72.93 50.6599 72.8804 50.5627C72.8308 50.4656 72.7615 50.3798 72.6771 50.3107L70.4824 48.4296C70.4052 48.3526 70.3114 48.2944 70.208 48.2596C70.1047 48.2248 69.9947 48.2143 69.8867 48.229C69.6624 48.2462 69.4534 48.3496 69.3036 48.5174C69.1611 48.6856 69.091 48.9033 69.1086 49.1231C69.1263 49.3428 69.2302 49.5466 69.3976 49.69L71.586 51.59Z" fill="#1D1D1B"/>
<path d="M90.3976 65.5107C90.2454 65.381 90.0519 65.3099 89.852 65.3101H89.7893C89.6255 65.3243 89.4694 65.3864 89.3405 65.4885C89.2116 65.5906 89.1155 65.7283 89.0641 65.8845C89.0127 66.0407 89.0082 66.2086 89.0513 66.3673C89.0944 66.526 89.1831 66.6686 89.3065 66.7773L91.5075 68.6585C91.6803 68.7925 91.897 68.8572 92.1151 68.8398C92.3332 68.8224 92.5369 68.7242 92.6863 68.5644C92.8276 68.3945 92.8968 68.1762 92.8792 67.9559C92.8617 67.7356 92.7587 67.531 92.5922 67.3856L90.3976 65.5107Z" fill="#1D1D1B"/>
<path d="M85.8015 56.4496H85.7262C85.6186 56.4576 85.5137 56.4873 85.4178 56.5369C85.3219 56.5865 85.237 56.6548 85.1682 56.738L83.5002 58.6631C83.4243 58.7475 83.3672 58.847 83.3326 58.9551C83.298 59.0632 83.2868 59.1774 83.2995 59.2901C83.3082 59.3985 83.3381 59.5041 83.3876 59.601C83.4371 59.6978 83.5052 59.784 83.588 59.8545C83.759 59.9921 83.9759 60.0595 84.1947 60.0432C84.4136 60.0269 84.6181 59.9281 84.7669 59.7667L86.4035 57.8479C86.4783 57.7628 86.5348 57.6632 86.5694 57.5553C86.6039 57.4474 86.6157 57.3335 86.6041 57.2208C86.5955 57.1124 86.5656 57.0068 86.5161 56.91C86.4666 56.8131 86.3985 56.727 86.3157 56.6565C86.174 56.5291 85.9919 56.4558 85.8015 56.4496Z" fill="#1D1D1B"/>
<path d="M76.653 57.4029C76.5033 57.2723 76.3122 57.1991 76.1137 57.196H76.0447C75.825 57.2152 75.6217 57.3199 75.4786 57.4876C75.3355 57.6554 75.2641 57.8727 75.2797 58.0926C75.2872 58.2006 75.316 58.3061 75.3644 58.403C75.4129 58.4999 75.48 58.5861 75.5619 58.657L77.4807 60.3061C77.6538 60.4413 77.8711 60.5073 78.0902 60.4911C78.3092 60.4748 78.5144 60.3776 78.6658 60.2183C78.8074 60.0474 78.8769 59.828 78.8593 59.6067C78.8417 59.3854 78.7386 59.1796 78.5717 59.0332L76.653 57.4029Z" fill="#1D1D1B"/>
<path d="M31.9065 50.0789C32.7365 51.0839 33.7387 51.9332 34.8662 52.5871L34.9728 52.6498L34.12 54.4306C34.0764 54.522 34.0512 54.6211 34.0458 54.7223C34.0405 54.8234 34.0551 54.9246 34.0889 55.0201C34.1227 55.1156 34.1749 55.2035 34.2427 55.2788C34.3104 55.3541 34.3923 55.4154 34.4837 55.459C34.6681 55.5419 34.8774 55.5503 35.0678 55.4825C35.2583 55.4147 35.4152 55.276 35.5058 55.0953L36.3649 53.3145L36.4778 53.3583C37.6988 53.8267 38.9949 54.0689 40.3028 54.0732H40.4345L40.5849 56.0421C40.5963 56.2395 40.6849 56.4245 40.8316 56.5571C40.9782 56.6897 41.1712 56.7593 41.3688 56.7507H41.4189C41.5178 56.7432 41.6142 56.716 41.7025 56.6708C41.7908 56.6256 41.8692 56.5633 41.9331 56.4874C42.0006 56.4107 42.052 56.3212 42.0843 56.2242C42.1166 56.1273 42.1292 56.0249 42.1212 55.923L41.9707 53.9541H42.0899C43.3853 53.7516 44.6328 53.3138 45.7707 52.6623L45.8773 52.5996L46.9934 54.2299C47.1142 54.394 47.2928 54.5061 47.4931 54.5433C47.6933 54.5806 47.9003 54.5403 48.072 54.4306C48.2341 54.3112 48.3445 54.1344 48.3807 53.9362C48.4168 53.7381 48.3759 53.5336 48.2663 53.3646L47.1502 51.728L47.2442 51.6465C48.2514 50.8211 49.1011 49.8206 49.7525 48.6931L49.8214 48.5802L51.6085 49.4392C51.7459 49.5064 51.9002 49.531 52.0516 49.5096C52.203 49.4882 52.3445 49.422 52.4579 49.3194C52.5713 49.2168 52.6514 49.0826 52.6877 48.9341C52.7241 48.7855 52.7151 48.6296 52.662 48.4862C52.5909 48.295 52.4496 48.138 52.2669 48.0472L50.4861 47.1944L50.53 47.0753C50.9978 45.8541 51.24 44.558 51.2448 43.2502V43.1186L53.2138 42.9681C53.4163 42.9521 53.6042 42.8568 53.7369 42.703C53.8696 42.5492 53.9362 42.3493 53.9224 42.1467C53.8988 41.9466 53.8002 41.7628 53.6465 41.6325C53.49 41.5082 53.2944 41.4437 53.0947 41.4506L51.1257 41.6011V41.482C50.9212 40.189 50.4835 38.944 49.834 37.8075L49.7713 37.6946L51.4016 36.5785C51.4864 36.5205 51.5589 36.4463 51.6148 36.3602C51.6708 36.2741 51.7092 36.1778 51.7277 36.0768C51.7454 35.9791 51.7434 35.8788 51.7218 35.7819C51.7003 35.685 51.6597 35.5934 51.6023 35.5124C51.4833 35.3431 51.3036 35.2263 51.1006 35.1863C50.9044 35.1588 50.7046 35.201 50.5363 35.3055L48.8997 36.4279L48.8182 36.3276C47.9899 35.3234 46.9899 34.4741 45.8647 33.8194L45.7519 33.7567L46.6046 31.9696C46.65 31.8787 46.6762 31.7796 46.6816 31.6782C46.687 31.5768 46.6715 31.4753 46.636 31.3802C46.5642 31.1859 46.4205 31.0265 46.2347 30.935C46.0465 30.8654 45.8397 30.8654 45.6515 30.935C45.4625 31.0037 45.3074 31.1431 45.2189 31.3238L44.3661 33.1108L44.247 33.0606C43.0257 32.5928 41.7297 32.3507 40.4219 32.3459H40.2902L40.1397 30.3706C40.1221 30.1704 40.0271 29.985 39.8748 29.8538C39.7226 29.7226 39.5252 29.6561 39.3246 29.6683C39.2234 29.6738 39.1245 29.7 39.0339 29.7453C38.9433 29.7906 38.863 29.854 38.7979 29.9316C38.7301 30.0082 38.6785 30.0977 38.6462 30.1946C38.6139 30.2916 38.6014 30.3941 38.6097 30.496L38.7602 32.465H38.6411C37.3475 32.6706 36.1023 33.1105 34.9665 33.7629L34.8537 33.8194L33.7375 32.1953C33.68 32.1088 33.6051 32.0352 33.5177 31.9791C33.4303 31.923 33.3322 31.8856 33.2296 31.8693C33.0324 31.8377 32.8305 31.8825 32.6653 31.9947C32.5817 32.0512 32.5103 32.1239 32.4552 32.2084C32.4 32.2929 32.3623 32.3876 32.3442 32.4869C32.3261 32.5861 32.328 32.688 32.3497 32.7865C32.3715 32.8851 32.4127 32.9782 32.4709 33.0606L33.5871 34.691L33.4867 34.7788C32.481 35.6057 31.6315 36.6059 30.9785 37.7322L30.9158 37.8388L29.1287 36.986C28.9438 36.8995 28.7324 36.8892 28.5401 36.9573C28.3477 37.0253 28.1897 37.1663 28.1003 37.3497C28.0148 37.5349 28.0035 37.7459 28.069 37.9391C28.1022 38.0342 28.1543 38.1215 28.2222 38.1958C28.2901 38.2702 28.3724 38.3301 28.464 38.3718L30.2511 39.2309L30.201 39.3437C29.7337 40.5651 29.4915 41.861 29.4861 43.1687V43.3005L27.5171 43.4509C27.3125 43.4685 27.1229 43.5658 26.9892 43.7218C26.8555 43.8777 26.7884 44.0799 26.8023 44.2849C26.826 44.4917 26.9268 44.682 27.0845 44.8179C27.2471 44.9289 27.4395 44.9879 27.6363 44.9872L29.6052 44.8367V44.9559C29.8097 46.2508 30.2474 47.4979 30.897 48.6367L30.9597 48.7495L29.3293 49.8657C29.245 49.9234 29.1732 49.9976 29.1182 50.0838C29.0633 50.17 29.0263 50.2665 29.0095 50.3674C28.9904 50.465 28.9916 50.5655 29.0132 50.6626C29.0348 50.7597 29.0762 50.8513 29.135 50.9316C29.2504 51.0987 29.4271 51.2135 29.6267 51.2511C29.8263 51.2886 30.0326 51.246 30.201 51.1323L31.8313 50.0162L31.9065 50.0789ZM33.261 37.1114C34.0573 36.1732 35.0323 35.4028 36.1293 34.8451C37.2263 34.2875 38.4234 33.9537 39.6506 33.8633C39.9015 33.8633 40.146 33.8633 40.3968 33.8633C42.5423 33.863 44.6233 34.5962 46.2948 35.9412C47.9662 37.2863 49.1276 39.1623 49.5863 41.2582C50.045 43.354 49.7734 45.5437 48.8166 47.4639C47.8598 49.3842 46.2752 50.9196 44.3258 51.8155C42.3763 52.7114 40.1792 52.914 38.0989 52.3896C36.0185 51.8652 34.18 50.6453 32.8882 48.9323C31.5964 47.2193 30.9291 45.1162 30.9969 42.9718C31.0647 40.8275 31.8636 38.7707 33.261 37.1427V37.1114Z" fill="#1D1D1B"/>
<path d="M43.9964 39.6949C44.1079 39.6962 44.2183 39.6733 44.32 39.6278C44.4218 39.5824 44.5125 39.5154 44.5859 39.4315L45.4825 38.3844C45.5512 38.3084 45.6034 38.219 45.6358 38.1219C45.6682 38.0247 45.68 37.922 45.6706 37.82C45.6576 37.6174 45.5652 37.4281 45.4136 37.2932C45.2563 37.1659 45.0576 37.1012 44.8555 37.1114C44.7546 37.1183 44.6562 37.1451 44.5658 37.1903C44.4754 37.2355 44.3948 37.2982 44.3288 37.3747L43.4258 38.4282C43.3579 38.5059 43.3062 38.5964 43.2739 38.6944C43.2416 38.7925 43.2293 38.896 43.2377 38.9989C43.2581 39.2003 43.3545 39.3864 43.5073 39.5193C43.6466 39.63 43.8185 39.6917 43.9964 39.6949Z" fill="#1D1D1B"/>
<path d="M36.6467 46.7051C36.4445 46.7242 36.2566 46.8182 36.12 46.9685L35.2233 48.0282C35.156 48.1038 35.1047 48.1922 35.0724 48.2881C35.04 48.384 35.0274 48.4854 35.0352 48.5863C35.0421 48.6871 35.0689 48.7856 35.1141 48.876C35.1593 48.9664 35.222 49.047 35.2985 49.1131C35.4399 49.2296 35.617 49.2937 35.8002 49.2949H35.8441C36.0452 49.2779 36.2318 49.1835 36.3645 49.0315L37.2675 47.9781C37.4013 47.8194 37.4666 47.6142 37.4493 47.4074C37.4332 47.2128 37.3408 47.0326 37.1923 46.9058C37.1243 46.8308 37.0391 46.7734 36.9441 46.7384C36.8491 46.7035 36.7471 46.6921 36.6467 46.7051Z" fill="#1D1D1B"/>
<path d="M45.2059 42.8301C45.2133 42.9322 45.2417 43.0316 45.2891 43.1222C45.3366 43.2128 45.4022 43.2927 45.4818 43.3568C45.6253 43.4781 45.8082 43.5427 45.996 43.5387H46.0336L47.4131 43.4321C47.5171 43.4256 47.6187 43.3977 47.7115 43.3503C47.8043 43.3028 47.8863 43.2368 47.9524 43.1562C48.0788 43.0037 48.1417 42.8083 48.128 42.6107C48.1136 42.4085 48.0214 42.2196 47.8709 42.0839C47.7126 41.9534 47.5115 41.8864 47.3065 41.8958L45.9207 42.0024C45.7166 42.0184 45.527 42.1144 45.3932 42.2694C45.2593 42.4244 45.192 42.6259 45.2059 42.8301Z" fill="#1D1D1B"/>
<path d="M35.5248 43.5762C35.5088 43.3783 35.4171 43.1942 35.2687 43.0622C35.1204 42.9303 34.9269 42.8606 34.7285 42.8677L33.3427 42.9743C33.1364 42.9903 32.9448 43.0873 32.8097 43.244C32.7435 43.3186 32.6938 43.4062 32.6635 43.5012C32.6333 43.5963 32.6233 43.6966 32.6341 43.7957C32.6402 43.8976 32.6667 43.9973 32.7119 44.0889C32.7571 44.1804 32.8202 44.262 32.8975 44.3287C33.0463 44.4486 33.2333 44.5108 33.4242 44.5043L34.8225 44.404C35.025 44.3864 35.2124 44.2896 35.344 44.1346C35.4755 43.9796 35.5405 43.7789 35.5248 43.5762Z" fill="#1D1D1B"/>
<path d="M40.0264 48.8685L40.1392 50.2606C40.1568 50.4646 40.2536 50.6537 40.4089 50.7873C40.5588 50.9052 40.745 50.9673 40.9356 50.9629C41.136 50.9435 41.3217 50.8494 41.4561 50.6995C41.5227 50.6224 41.5731 50.5328 41.6044 50.4359C41.6356 50.3389 41.647 50.2367 41.6379 50.1352L41.5313 48.7494C41.5185 48.5553 41.4323 48.3734 41.2902 48.2406C41.1481 48.1078 40.9608 48.0341 40.7663 48.0345H40.7099C40.6069 48.0418 40.5066 48.0701 40.4149 48.1176C40.3233 48.165 40.2422 48.2306 40.1768 48.3105C40.0568 48.4702 40.0029 48.6701 40.0264 48.8685Z" fill="#1D1D1B"/>
<path d="M39.9513 38.3467H39.989C40.0904 38.3412 40.1896 38.3153 40.2809 38.2708C40.3721 38.2262 40.4535 38.1637 40.5201 38.0871C40.5868 38.0105 40.6374 37.9213 40.669 37.8248C40.7005 37.7283 40.7124 37.6264 40.7038 37.5252L40.5972 36.1269C40.5714 35.9239 40.4735 35.737 40.3213 35.6002C40.1741 35.4825 39.9891 35.4224 39.8009 35.4309C39.7003 35.436 39.6017 35.4614 39.5112 35.5056C39.4207 35.5498 39.34 35.6118 39.2741 35.688C39.1397 35.8441 39.0721 36.0468 39.086 36.2524L39.1926 37.6444C39.2136 37.8331 39.3019 38.0079 39.4412 38.1369C39.5805 38.2658 39.7616 38.3403 39.9513 38.3467Z" fill="#1D1D1B"/>
<path d="M35.6 40.1275C35.7395 40.2423 35.9148 40.3044 36.0954 40.3031C36.2048 40.3069 36.3136 40.2857 36.4135 40.2411C36.5135 40.1966 36.602 40.1298 36.6723 40.046C36.7417 39.969 36.7947 39.8788 36.8281 39.7807C36.8615 39.6826 36.8746 39.5788 36.8667 39.4755C36.8417 39.2754 36.7461 39.0908 36.5971 38.955L35.5499 38.0583C35.4794 37.9837 35.3916 37.9275 35.2943 37.8947C35.197 37.8619 35.0931 37.8534 34.9918 37.8702C34.8399 37.8805 34.6945 37.9355 34.5738 38.0283C34.4531 38.1211 34.3626 38.2476 34.3137 38.3917C34.2647 38.5359 34.2595 38.6913 34.2987 38.8384C34.338 38.9855 34.4198 39.1177 34.534 39.2183L35.6 40.1275Z" fill="#1D1D1B"/>
<path d="M45.1368 46.2787C44.9811 46.1481 44.7818 46.081 44.5787 46.0906C44.3786 46.1094 44.1939 46.2063 44.0646 46.3603C43.9968 46.4379 43.9457 46.5286 43.9144 46.6267C43.8831 46.7249 43.8724 46.8283 43.8827 46.9308C43.8999 47.1301 43.9945 47.3147 44.1461 47.4451L45.2058 48.348C45.343 48.4674 45.5193 48.5322 45.7012 48.5298H45.7576C45.8591 48.5249 45.9586 48.4996 46.0502 48.4554C46.1418 48.4113 46.2235 48.3491 46.2906 48.2727C46.4231 48.1178 46.489 47.9169 46.4737 47.7136C46.4584 47.5103 46.3633 47.3213 46.2091 47.1879L45.1368 46.2787Z" fill="#1D1D1B"/>
<path d="M41.87 44.2786C41.9815 44.2803 42.0921 44.2576 42.1939 44.2121C42.2957 44.1666 42.3864 44.0995 42.4595 44.0153L43.2496 43.0934C43.337 42.981 43.3919 42.8468 43.4083 42.7053C43.4246 42.5638 43.4018 42.4205 43.3423 42.2911C43.2827 42.1617 43.1888 42.0511 43.0707 41.9714C42.9526 41.8918 42.815 41.8461 42.6727 41.8393H42.5598C42.3758 41.8667 42.2072 41.9577 42.0833 42.0964L41.2932 43.0182C41.1586 43.1791 41.0912 43.3858 41.1051 43.5951C41.1299 43.7934 41.2257 43.976 41.3747 44.1093C41.5139 44.2237 41.6899 44.2838 41.87 44.2786Z" fill="#1D1D1B"/>
<path d="M38.4216 44.3223C38.5613 44.4416 38.7396 44.5062 38.9233 44.5041H38.9797C39.0803 44.499 39.1788 44.4736 39.2694 44.4294C39.3599 44.3853 39.4406 44.3232 39.5065 44.247C39.5739 44.1703 39.6253 44.0808 39.6576 43.9839C39.6899 43.8869 39.7025 43.7845 39.6946 43.6827C39.6757 43.479 39.5791 43.2904 39.4249 43.156L38.5032 42.3659C38.3372 42.2554 38.1442 42.1925 37.9451 42.184C37.8437 42.1914 37.7448 42.2191 37.6544 42.2654C37.5639 42.3117 37.4836 42.3757 37.4184 42.4537C37.3508 42.5276 37.2996 42.6149 37.2683 42.71C37.2369 42.8051 37.2261 42.9059 37.2365 43.0055C37.2423 43.1059 37.268 43.2042 37.3122 43.2947C37.3563 43.3851 37.418 43.4658 37.4936 43.5322L38.4216 44.3223Z" fill="#1D1D1B"/>
<path d="M49.0997 68.8339L34.0505 80.8232C33.8999 80.9409 33.79 81.1028 33.7361 81.2862C33.6822 81.4696 33.6871 81.6653 33.75 81.8457C33.8129 82.0262 33.9308 82.1825 34.087 82.2926C34.2432 82.4027 34.43 82.4612 34.6211 82.4598C34.8288 82.461 35.0305 82.3901 35.1917 82.2592L50.241 70.2699C50.3353 70.195 50.4139 70.1022 50.4723 69.9969C50.5307 69.8916 50.5679 69.7758 50.5815 69.6561C50.5952 69.5364 50.5852 69.4153 50.552 69.2995C50.5189 69.1837 50.4633 69.0756 50.3883 68.9813C50.3134 68.887 50.2206 68.8084 50.1153 68.75C50.01 68.6915 49.8942 68.6544 49.7746 68.6407C49.6549 68.6271 49.5337 68.6371 49.4179 68.6702C49.3022 68.7034 49.194 68.759 49.0997 68.8339Z" fill="#1D1D1B"/>
<path d="M53.527 80.2838C53.4519 80.1891 53.3589 80.1102 53.2532 80.0516C53.1475 79.9931 53.0312 79.9561 52.9112 79.9427C52.7911 79.9293 52.6695 79.9398 52.5535 79.9735C52.4375 80.0073 52.3294 80.0638 52.2353 80.1396L30.9155 97.1139C30.7649 97.2316 30.655 97.3936 30.6011 97.577C30.5472 97.7603 30.5521 97.9559 30.615 98.1364C30.6779 98.3169 30.7958 98.4732 30.952 98.5833C31.1082 98.6934 31.2949 98.7518 31.4861 98.7505C31.6938 98.7517 31.8955 98.6808 32.0567 98.5498L53.3765 81.5693C53.4715 81.4952 53.5507 81.403 53.6098 81.2981C53.6688 81.1931 53.7064 81.0776 53.7204 80.958C53.7344 80.8384 53.7245 80.7172 53.6913 80.6014C53.6581 80.4857 53.6023 80.3778 53.527 80.2838Z" fill="#1D1D1B"/>
<path d="M63.4343 85.8144L47.4508 98.5436C47.3561 98.6186 47.2772 98.7117 47.2187 98.8174C47.1601 98.9231 47.1231 99.0393 47.1097 99.1594C47.0962 99.2795 47.1067 99.4011 47.1405 99.5171C47.1743 99.6331 47.2308 99.7412 47.3066 99.8353C47.3916 99.9435 47.5001 100.031 47.624 100.09C47.7479 100.15 47.8838 100.181 48.0214 100.18C48.2291 100.181 48.4308 100.111 48.592 99.9795L64.563 87.2566C64.6573 87.1817 64.7359 87.0889 64.7944 86.9836C64.8528 86.8783 64.8899 86.7625 64.9036 86.6428C64.9173 86.5232 64.9073 86.402 64.8741 86.2862C64.841 86.1704 64.7853 86.0623 64.7104 85.968C64.6355 85.8737 64.5427 85.7951 64.4374 85.7367C64.3321 85.6782 64.2163 85.6411 64.0966 85.6274C63.977 85.6138 63.8558 85.6238 63.74 85.657C63.6242 85.6901 63.5161 85.7457 63.4218 85.8206L63.4343 85.8144Z" fill="#1D1D1B"/>
</svg>
