<svg width="21" height="21" viewBox="0 0 21 21" fill="none" xmlns="http://www.w3.org/2000/svg">
<path d="M16.2676 20.9999C16.7957 21.0023 17.3218 20.9321 17.8319 20.7909C18.425 20.621 18.9308 20.222 19.2428 19.6787L20.2591 17.9505C20.5828 17.4003 20.4261 16.687 19.9035 16.3316L15.8613 13.5742C15.3484 13.2271 14.6609 13.3412 14.2814 13.8367L13.1041 15.3853C12.9527 15.5892 12.6778 15.6486 12.4586 15.5241L12.2348 15.3977C11.4922 14.9836 10.5684 14.4682 8.70733 12.5636C6.84593 10.6591 6.34128 9.71325 5.93648 8.95527L5.81363 8.72628C5.69039 8.50248 5.74733 8.21964 5.94662 8.06365L7.45938 6.85966C7.94335 6.4715 8.05528 5.76858 7.71638 5.24358L5.02118 1.10901C4.6737 0.574432 3.97679 0.41406 3.439 0.744378L1.74879 1.78321C1.21763 2.10275 0.828034 2.61977 0.66151 3.22656C0.0527398 5.4953 0.510584 9.41046 6.14902 15.1787C10.6339 19.766 13.9729 20.9999 16.2676 20.9999Z" fill="#00284F"/>
</svg>
